<svg width="4" height="7" viewBox="0 0 4 7" fill="none" xmlns="http://www.w3.org/2000/svg">
<path d="M0 3.56836C2.064 3.56836 2.86 5.2808 3 6.13702" stroke="black"/>
<path d="M0 3.56836C2.064 3.56836 2.86 1.85591 3 0.999687" stroke="black"/>
</svg>
