<svg width="9" height="17" viewBox="0 0 9 17" fill="none" xmlns="http://www.w3.org/2000/svg">
<path d="M8.41022 9.45227L8.87692 6.41113H5.95887V4.43764C5.95887 3.60565 6.36649 2.79465 7.6734 2.79465H9V0.205456C9 0.205456 7.79615 0 6.64514 0C4.24203 0 2.67125 1.45657 2.67125 4.09336V6.41113H0V9.45227H2.67125V16.804H5.95887V9.45227H8.41022Z" fill="white"/>
</svg>
